<?xml version="1.0" standalone="no"?>
<!DOCTYPE svg PUBLIC "-//W3C//DTD SVG 1.1//EN" "http://www.w3.org/Graphics/SVG/1.1/DTD/svg11.dtd">
<svg xmlns="http://www.w3.org/2000/svg">
<metadata>Copyright (C) 2019 by original authors @ fontello.com</metadata>
<defs>
<font id="plavi_piksel-toni" horiz-adv-x="1000" >
<font-face font-family="plavi_piksel-toni" font-weight="400" font-stretch="normal" units-per-em="1000" ascent="850" descent="-150" />
<missing-glyph horiz-adv-x="1000" />
<glyph glyph-name="cow" unicode="&#xe800;" d="M178 447c-9 0-16-7-16-17 0-9 7-17 16-17 9 0 16 8 16 17 0 10-7 17-16 17z m140-34c9 0 16 8 16 17 0 10-7 17-16 17-9 0-16-7-16-17 0-9 7-17 16-17z m-148 180c9 0 16 8 16 18 0 6 4 10 10 10 5 0 9-4 9-10 0-10 7-18 17-18 9 0 16 8 16 18 0 25-19 45-42 45-24 0-43-20-43-45 0-10 8-18 17-18z m109 1c9 0 17 7 17 17 0 6 4 10 9 10 5 0 10-4 10-10 0-10 7-17 16-17 9 0 16 7 16 17 0 25-19 45-42 45-23 0-42-20-42-45 0-10 7-17 16-17z m745-35c0 64-33 122-86 153 8 27-2 57-25 73-15 10-44 19-66 19-25 0-37-11-42-20-21-34 23-90 45-105 10-7 21-10 32-10 14 0 27 5 38 14 44-24 72-72 72-124 0-44-20-86-54-113-21 33-50 62-86 87-77 54-180 84-288 84-22 0-44-1-66-4v42c0 43-33 78-73 78h-4c19 12 39 28 49 49 9 18 10 37 4 56-3 9-12 14-21 11-9-3-13-13-10-22 3-10 3-19-2-29-13-26-55-46-77-54-13 8-28 13-45 13h-140c-17 0-33-5-46-14-22 7-66 27-80 55-4 10-5 19-2 29 3 9-1 19-10 22-8 3-18-2-21-11-6-19-4-38 4-56 10-21 30-37 49-49h0c-40 0-73-35-73-78v-118c0-10 7-18 16-18h35c15 0 28 5 40 13v-15c-37-26-57-62-57-99 0-41 23-79 66-106 17-11 36-20 56-26 10-55 41-106 89-148 0 0 1 0 1 0 2-2 4-4 6-6v-160h-49v191c0 10-7 17-16 17-9 0-16-7-16-17v-208-72c0-5 2-10 6-13 3-3 6-4 10-4 1 0 3 0 4 0l37 10 37-10c0 0 0 0 0 0 0 0 1 0 1 0 0 0 0 0 1 0 0 0 1 0 1 0 0 0 0 0 0 0 0 0 0 0 1 0 0 0 0 0 0 0 1 0 1 0 2 0 0 0 0 0 0 0l59 11 60-11c4-1 9 1 13 4 4 3 6 8 6 13v71c0 0 0 0 0 1v97c34-10 70-17 106-20 11-54 56-95 110-95 26 0 51 10 70 27v-9-72c0-5 3-10 7-13 3-3 6-4 10-4 1 0 2 0 4 0l36 10 37-10c0 0 0 0 1 0 0 0 0 0 1 0 0 0 0 0 0 0 1 0 1 0 2 0 0 0 0 0 0 0 0 0 0 0 0 0 0 0 0 0 1 0 0 0 1 0 2 0 0 0 0 0 0 0l59 11 59-11c5-1 10 1 14 4 3 3 5 8 5 13v72c0 0 0 1 0 2v238c7 10 13 21 19 32 4 8 6 14 7 16 10 27 16 54 16 81 0 32-7 63-21 92 44 33 70 87 70 143z m-120 158c-5-8-13-13-22-13-5 0-10 1-14 4-7 5-18 17-27 31-10 17-9 25-9 26 1 1 5 4 15 4 18 0 39-7 49-14 12-8 16-25 8-38z m-652-811l-20 5c-2 1-3 1-4 1-2 0-3 0-4-1l-21-5v31h49v-31h0z m391 670c54-8 106-24 151-47-12-32-41-54-74-54-43 0-79 38-79 85 0 5 1 11 2 16z m-236 87v35h18c22 0 40-20 40-43v-62-39h-18c-1 0-2 0-3 0-3 0-6 1-9 2-1 1-2 1-2 1-15 6-26 22-26 40v66z m-283-66v66c0 33 24 59 55 59h140v0c31 0 55-26 55-59v-66-34-26c-4 2-9 4-13 6 0 0-1 0-1 0-2 1-4 2-6 3-1 0-1 0-2 0-2 1-4 2-6 2 0 1-1 1-1 1-4 1-9 3-13 4 0 0-1 0-1 0-2 1-4 1-5 1-2 1-3 1-4 1-2 1-3 1-5 1-1 1-3 1-4 1-2 1-3 1-4 1-2 1-4 1-6 1-1 1-2 1-3 1-3 0-6 1-9 1-1 0-2 0-3 1-2 0-4 0-7 0-1 0-2 1-3 1-2 0-4 0-6 0-1 0-3 0-4 0-2 0-4 1-6 1-1 0-2 0-3 0-4 0-7 0-10 0-3 0-6 0-10 0-1 0-2 0-3 0-2 0-4-1-6-1-1 0-3 0-4 0-2 0-4 0-6 0-1 0-2-1-3-1-3 0-5 0-7 0-1-1-2-1-3-1-3 0-6-1-9-1-1 0-2 0-3-1-2 0-4 0-6-1-1 0-2 0-4-1-1 0-3 0-4-1-2 0-3 0-5-1-1 0-2 0-4-1-1 0-3 0-5-1 0 0-1 0-1 0-4-1-9-3-13-4 0 0-1 0-1-1-2 0-4-1-6-2-1 0-1 0-2 0-2-1-4-2-6-3 0 0-1 0-1 0-4-2-9-4-13-6v60h0z m-73-43h-18v101c0 23 18 43 40 43h18v-35-66c0-24-18-43-40-43z m16-136c0 60 83 111 182 111 80 0 150-34 174-78 0-1 0-1 0-1 1-1 2-3 2-4 0-1 1-1 1-1 0-2 1-3 1-4 0-1 1-1 1-2 0-1 1-2 1-3 0-1 0-2 0-2 1-1 1-2 1-4 0 0 0-1 0-2 1-1 1-2 1-3 0-1 0-1 0-2 0-2 0-4 0-5 0-61-83-112-182-112-3 0-6 0-9 0-95 4-173 53-173 112z m309-514l-43 8c-2 0-3 0-5 0l-43-8v33h91v-33z m327 140c0-1 0-2 0-2-1-1-1-2-1-2 0-1 0-2 0-2 0-1-1-2-1-3 0 0 0-1 0-1 0-1-1-2-1-3 0 0 0-1 0-1-1-1-1-2-1-3 0 0-1-1-1-1 0-1 0-2-1-3-12-30-40-51-72-51-35 0-65 24-76 58 1 0 2 0 2 0 2 0 4 0 6 0 1 0 3 0 5 0 0 0 1 0 2 0 0 0 1 0 1 0 4 0 8 0 13 0 0 0 0 0 0 0 4 1 9 1 13 1 1 0 1 0 2 0 4 0 8 0 12 1 0 0 1 0 2 0 4 0 8 1 12 1 1 0 2 0 3 0 3 1 6 1 10 1 1 0 2 1 4 1 3 0 5 1 8 1 3 0 6 1 9 1 1 0 3 1 5 1 2 0 5 1 8 1 0 0 0 1 1 1 12 2 24 5 36 8 0-2 0-3 0-4z m74-138l-21 5c-1 1-2 1-4 1-1 0-2 0-4-1l-20-5v31h49v-31h0z m-40 151c13 5 27 10 40 16v-101h-49v39c0 1 1 2 1 2 0 1 1 2 1 3 0 1 1 2 1 3 0 1 0 2 1 3 0 1 0 2 1 3 0 1 0 2 0 2 0 2 1 3 1 4 0 1 0 1 0 2 1 1 1 3 1 4 0 1 0 1 0 2 1 1 1 3 1 4 0 1 0 1 0 2 0 1 0 3 0 4 0 1 0 1 0 2 1 2 1 4 1 6 0 0 0 0 0 0z m164-153l-43 8c-2 0-4 0-6 0l-42-8v33h91v-33z m29 355c-1-1-1-2-1-3 0 0-1-2-2-5-1-1-1-2-2-3-7-16-30-57-87-102 0 0 0 0 0 0-3-2-6-4-9-6-7-6-9-17-4-24 3-5 8-8 13-8 4 0 7 1 10 3 3 3 6 5 9 7 0 0 0 0 0 0 17 14 31 27 44 39v-185h-92v127c0 6-2 12-7 15-5 3-10 3-15 1 0 0-1 0-1 0-3-2-7-3-11-5-1-1-2-1-3-2-3-1-5-2-7-3-16-7-33-13-50-18-18-5-36-10-54-13-1 0-2 0-2 0-5-1-9-2-14-3-1 0-3 0-5 0-2-1-4-1-6-1-2-1-5-1-7-1-2 0-3-1-5-1-4 0-8 0-12-1-1 0-2 0-4 0-3 0-7-1-11-1-1 0-1 0-2 0-4 0-8 0-13-1-1 0-2 0-3 0-4 0-9 0-13 0-5 0-11 0-16 0 0 0-1 1-2 1-5 0-11 0-16 0 0 0 0 0 0 0-46 3-91 12-133 26-5 1-10 1-14-3-5-3-7-8-7-14v-103h-91v169c0 5-3 10-7 14-2 2-5 4-7 6-1 0-2 1-3 2-1 1-3 2-4 3-1 2-2 3-4 4 0 1-1 1-2 2-25 23-44 49-56 77-1 1-1 2-2 3-3 8-6 16-8 25 0-1 1-1 1-1 3 0 5-1 8-1 2 0 3 0 5-1 2 0 3 0 4 0 2 0 4-1 6-1 1 0 2 0 3 0 3 0 6-1 9-1 0 0 1 0 1 0 3 0 6 0 8 0 1 0 2 0 3 0 3-1 6-1 9-1 56 0 109 15 149 41 43 27 66 65 66 106 0 2 0 4 0 6 0 1 0 1 0 1 0 2-1 4-1 6 0 0 0 1 0 1 0 2-1 4-1 6 0 0 0 1 0 1-6 29-25 57-55 78v11c6-2 12-4 18-5 7-3 14-4 22-4h35c9 0 16 8 16 18v41c22 3 44 4 66 4 15 0 31-1 46-2-1-6-2-13-2-20 0-66 51-120 112-120 46 0 85 29 103 72 3-3 7-5 11-8 70-49 108-113 108-180 0-22-4-44-12-65z m-353 162c-35 0-64-31-64-69 0-38 29-68 64-68 36 0 65 30 65 68 0 38-29 69-65 69z m0-103c-17 0-31 16-31 34 0 19 14 34 31 34 18 0 32-15 32-34 0-18-14-34-32-34z" horiz-adv-x="1024" />

<glyph glyph-name="pets" unicode="&#xe803;" d="M170 252c9-4 20-1 24 7 5 8 1 18-8 23-2 1-63 31-79 121-2 7-8 13-16 14-8 0-15-4-18-11-39-90 34-194 37-199 3-4 9-7 15-7 3 0 7 1 10 3 8 5 10 15 5 23-1 1-31 44-40 95 29-49 68-68 70-69z m83-35c10 2 16 11 14 20-2 9-11 15-21 13-36-7-103-43-103-133 0-66 14-111 26-136-39-7-62-30-62-64 0-39 37-67 89-67h18c29 0 48 21 50 23 6 7 4 18-3 23-8 6-19 5-25-2-1-1-10-11-22-11h-18c-26 0-53 12-53 34 0 8 0 33 53 33 7 0 13 3 16 9 3 5 3 12-1 17 0 0-33 48-33 141 0 84 72 99 75 100z m505-236c12 25 26 70 26 136 0 90-67 126-103 133-10 2-19-4-21-13-2-9 4-18 14-20 3-1 75-15 75-100 0-93-33-141-33-141-4-5-4-12-1-17 3-6 9-9 16-9 53 0 53-25 53-33 0-22-27-34-53-34h-18c-12 0-21 10-22 11-6 7-17 8-25 2-7-5-9-16-3-23 2-2 20-23 50-23h18c51 0 89 28 89 67 0 34-23 57-62 64z m-185 1l33 182c1 9-5 18-15 19-10 2-19-4-20-14l-34-186h-2c-10 0-18-7-18-16 0-10 8-17 18-17h18c53 0 53-25 53-33 0-22-27-34-53-34h-18c-30 0-54 23-54 50v234c0 9-8 16-18 16-9 0-17-7-17-16v-234c0-27-24-50-54-50h-18c-26 0-53 12-53 34 0 8 0 33 53 33h18c10 0 18 7 18 17 0 9-8 16-18 16h-3l-33 186c-1 10-10 16-20 14-10-1-16-10-15-19l33-182c-44-6-69-29-69-65 0-39 38-67 89-67h18c29 0 55 13 71 33 17-20 43-33 72-33h18c51 0 89 28 89 67 0 36-25 59-69 65z m334 726c-39 73-133 142-194 142-34 0-94-50-123-77-35 27-77 44-127 44-49 0-91-17-126-44-29 27-89 77-123 77-61 0-155-69-194-142-12-23-20-52-20-75 0-46 40-83 89-83 44 0 64 27 80 49 2 3 4 5 6 8l72 100c5 8 3 18-5 24-9 5-20 3-25-5l-71-100c-2-2-4-5-6-8-16-22-27-35-51-35-29 0-53 23-53 50 0 18 6 42 16 60 35 65 120 124 162 124 15 0 60-33 98-68-67-72-98-194-98-316 0-153 72-216 249-216 178 0 250 63 250 216 0 122-31 244-98 316 38 35 83 68 98 68 42 0 127-59 162-124 10-18 16-42 16-60 0-27-24-50-53-50-25 0-35 13-52 36l-76 107c-5 8-17 10-25 5-8-6-10-16-5-24l76-106c17-24 36-51 82-51 49 0 89 37 89 83 0 23-8 52-20 75z m-230-275c0-135-56-183-214-183-157 0-213 48-213 183 0 175 66 350 213 350 148 0 214-175 214-350z m-122-75c-3-6-15-8-20-8-21 0-43 17-50 36 29 6 50 25 50 47 0 28-32 50-72 50-40 0-71-22-71-50 0-22 21-41 50-47-7-19-29-36-50-36-5 0-16 2-20 8-4 8-15 11-24 7-9-5-12-15-7-23 14-25 47-25 51-25 28 0 55 15 71 36 17-21 44-36 72-36 4 0 37 0 51 25 5 9 1 19-7 23-9 4-20 1-24-7z m-92 59c-21 0-35 10-35 16 0 7 14 17 35 17 22 0 36-10 36-17 0-6-14-16-36-16z m81 133c14 0 26 11 26 25 0 14-12 25-26 25-15 0-27-11-27-25 0-14 12-25 27-25z m-161 0c15 0 27 11 27 25 0 14-12 25-27 25-14 0-26-11-26-25 0-14 12-25 26-25z" horiz-adv-x="927" />

<glyph glyph-name="sapa_cta" unicode="&#xe804;" d="M614 386c116-138 97-344-38-460-67-56-149-82-235-75-86 8-165 49-221 112-53 60-79 135-79 210 0 94 38 184 116 247 135 120 341 101 457-34z m-412-18c-105-90-120-247-30-352 45-53 105-82 172-86 68-4 131 15 184 60 52 45 82 105 86 172 0 7 0 15 0 22 0 60-23 116-60 161-86 98-247 113-352 23z m708-98c41-3 78-22 104-52 27-30 42-71 38-112-4-41-23-79-53-105-30-26-71-41-112-38-41 4-79 23-105 53-30 26-41 60-41 97 0 45 19 86 56 120 30 26 71 41 113 37z m-72-97c-33-30-37-78-7-112 15-15 34-26 56-26 23-4 45 3 60 15 15 15 26 33 26 56 0 4 0 4 0 7 0 19-7 38-19 53-15 15-33 26-56 26-22 0-41-4-60-19z m-3 461c41-4 78-23 105-53 26-30 41-71 37-112-4-41-23-79-52-105-30-26-72-41-113-37-41 3-78 22-105 52-26 30-37 67-37 101 0 4 0 8 0 11 4 41 22 79 52 105 30 26 72 41 113 38z m-68-90c-15-15-26-34-26-56 0-23 4-42 19-60 15-15 34-27 56-27 22 0 45 8 60 19 15 15 26 34 26 56 4 23-4 42-19 60-15 15-33 26-56 26-22 0-41-3-60-18z m-119 250c56-63 48-164-19-217-30-26-71-41-112-37-42 4-79 22-105 52-23 30-38 64-38 101 0 4 0 8 0 12 4 41 23 78 53 104 67 60 164 53 221-15z m-173-37c-15-15-26-34-26-56 0-23 4-41 19-60 15-15 34-26 56-26 23 0 41 4 60 19 34 29 37 78 7 112-30 33-82 37-116 11z m-202-7c26-30 38-72 34-113-4-41-22-78-52-105-30-26-72-41-113-37-41 4-78 22-105 52-26 30-37 64-37 101 0 45 19 87 56 120 64 56 165 49 217-18z m-172-38c-34-30-37-78-7-112 15-15 33-26 56-26 22 0 41 3 60 18 15 15 26 34 26 56 0 4 0 4 0 8 0 19-8 37-19 52-30 27-82 30-116 4z" horiz-adv-x="1091" />

<glyph glyph-name="shopping-cart" unicode="&#xe805;" d="M322 204h0c0 0 0 0 0 0h532c13 0 24 8 28 21l117 410c2 9 1 18-5 26-5 7-14 11-23 11h-716l-21 95c-3 13-15 23-29 23h-176c-16 0-29-14-29-30 0-16 13-29 29-29h153c3-17 100-451 105-476-31-14-53-45-53-81 0-48 40-88 88-88h532c16 0 29 13 29 30 0 16-13 29-29 29h-532c-16 0-29 13-29 29 0 16 13 30 29 30z m610 410l-101-352h-485l-78 352h664z m-639-616c0-48 39-88 88-88 48 0 88 40 88 88 0 49-40 88-88 88-49 0-88-39-88-88z m88 30c16 0 29-13 29-30 0-16-13-29-29-29-16 0-29 13-29 29 0 17 13 30 29 30z m326-30c0-48 40-88 88-88 48 0 88 40 88 88 0 49-40 88-88 88-48 0-88-39-88-88z m88 30c16 0 29-13 29-30 0-16-13-29-29-29-16 0-29 13-29 29 0 17 13 30 29 30z" horiz-adv-x="1000" />

<glyph glyph-name="three-paws" unicode="&#xe806;" d="M344 503c31-37 26-91-10-122-18-15-39-21-62-20-23 2-44 13-59 30-14 16-21 36-21 56 0 25 10 49 31 66 36 30 90 25 121-10z m-108-5c-28-24-32-66-8-93 12-14 28-22 46-23 18-1 35 4 48 16 14 12 22 28 23 46 0 2 0 4 0 6 0 16-6 31-16 43-23 25-66 28-93 5z m186-26c11-1 21-6 28-14 7-8 11-19 10-30-1-11-6-21-14-28-8-7-19-11-30-10-11 1-21 6-28 14-8 7-11 16-11 26 0 12 5 23 15 32 8 7 19 11 30 10z m-19-26c-9-8-10-21-2-30 4-4 9-7 15-7 6-1 12 1 16 4 4 4 7 9 7 15 0 1 0 1 0 2 0 5-2 10-5 14-4 4-9 7-15 7-6 0-11-1-16-5z m-1 121c11-1 21-6 28-13 7-8 11-19 10-30-1-11-6-21-14-28-8-7-19-11-30-10-11 1-21 6-28 14-7 8-10 18-10 27 0 1 0 2 0 3 1 11 6 21 14 28s19 10 30 9z m-18-23c-4-4-7-9-7-15 0-6 1-11 5-16 4-4 9-7 15-7 6 0 12 2 16 5 4 4 7 9 7 15 1 6-1 11-5 16-4 4-9 7-15 7-6 0-11-1-16-5z m-31 66c15-17 13-44-5-57-8-7-19-11-30-10-10 1-20 6-27 14-6 7-10 16-10 26 0 1 0 2 0 3 1 11 6 21 14 28 17 16 43 14 58-4z m-45-10c-4-4-7-9-7-15s1-11 5-16c4-4 8-7 14-7 6 0 11 1 16 5 9 8 10 21 2 30-8 9-22 10-30 3z m-54-2c7-8 10-19 9-30s-6-20-14-27c-8-7-19-11-30-10-10 1-20 6-27 14-7 8-10 16-10 26 0 12 5 23 15 32 17 15 44 13 57-5z m-45-10c-9-8-10-21-2-29 4-4 9-7 15-7s11 1 16 5c4 3 7 8 7 14 0 1 0 1 0 2 0 5-2 10-5 14-8 7-22 8-31 1z m120-459c31-37 26-91-10-122-17-15-39-22-62-20-23 2-44 13-59 30-14 16-21 36-21 56 0 25 10 49 31 66 37 30 91 25 121-10z m-108-5c-28-24-32-66-8-93 12-14 28-22 46-23 18-1 35 4 49 16 13 12 21 28 22 46 0 2 0 4 0 6 0 16-6 31-16 43-23 25-65 29-93 5z m187-25c11-1 21-6 28-14 7-8 11-19 10-30-1-11-6-21-14-28-8-7-19-11-30-10-11 1-21 6-28 14-8 7-11 16-11 26 0 12 5 23 15 32 8 7 19 11 30 10z m-19-26c-9-8-10-21-2-30 4-4 9-7 15-7 6-1 12 1 16 4 4 4 7 9 7 15 0 1 0 1 0 2 0 5-2 10-5 14-4 4-9 7-15 7-6 0-11-1-16-5z m-1 121c11-1 21-6 28-14 7-8 11-19 10-29-1-11-6-21-14-28-8-7-19-11-30-10-11 1-21 6-28 14-7 8-10 18-10 27 0 1 0 2 0 3 1 10 6 20 14 27 8 7 19 11 30 10z m-18-24c-4-4-7-9-7-14s1-11 5-16c4-4 9-7 15-7 6 0 12 2 16 5 4 4 7 9 7 15 1 6-1 10-5 15-4 4-9 7-15 7s-11-1-16-5z m-32 67c15-17 13-44-5-58-8-7-19-11-29-10-11 1-21 6-28 14-6 8-10 17-10 27 0 1 0 2 0 3 1 11 6 21 14 28 18 15 43 13 58-4z m-45-10c-4-4-7-9-7-15 0-6 1-11 5-16 4-4 9-7 15-7 5 0 10 1 15 5 9 8 10 21 2 30-8 9-21 10-30 3z m-53-2c7-8 10-19 9-30-1-11-6-21-14-28-8-7-19-10-30-9-11 1-21 5-28 13-7 8-10 17-10 27 0 12 5 23 15 32 17 14 44 12 58-5z m-46-10c-9-8-10-21-2-30 4-4 9-7 15-7 6 0 11 1 16 5 4 4 7 9 7 15 0 1 0 1 0 2 0 5-2 10-5 14-8 7-22 8-31 1z m504 396c30-37 25-90-10-121-18-15-40-22-63-20-23 2-44 13-59 30-14 16-21 36-21 56 0 24 10 48 31 65 36 31 91 26 122-10z m-110-5c-28-24-32-65-8-92 12-14 28-22 46-23 18-1 35 4 49 16 14 12 22 28 23 46 0 2 0 4 0 6 0 15-6 30-16 42-23 25-66 29-94 5z m187-26c11-1 21-6 28-14 7-7 11-18 10-29-1-11-6-21-14-28-8-7-19-11-30-10-11 1-21 6-28 14-8 7-11 16-11 26 0 12 5 22 15 31 8 7 19 11 30 10z m-19-24c-9-8-10-21-2-30 4-4 9-7 15-7 6-1 12 1 16 4 4 4 7 9 7 15 0 1 0 1 0 2 0 5-2 10-5 14-4 4-9 6-15 6-6 0-11-1-16-4z m-1 121c11-1 21-6 28-14s11-19 10-30c-1-11-6-21-14-28-8-7-19-11-30-10-11 1-21 6-28 14-7 8-10 18-10 27 0 1 0 2 0 3 1 11 6 21 14 28 8 7 19 11 30 10z m-18-24c-4-4-7-9-7-15 0-6 1-11 5-16 4-4 9-7 15-7 6 0 12 2 16 5 4 4 7 9 7 15 1 6-1 11-5 16-4 4-9 7-15 7s-11-1-16-5z m-30 66c14-17 12-44-5-58-8-7-19-11-30-10-11 1-21 6-28 14-6 8-10 17-10 27 0 1 0 2 0 3 1 11 6 21 14 28 18 16 44 14 59-4z m-46-10c-4-4-7-9-7-15s1-11 5-16c4-4 9-7 15-7 6 0 11 1 16 5 9 8 10 21 2 30-8 9-22 10-31 3z m-54-2c7-8 10-19 9-30-1-11-6-21-14-28-8-7-19-11-30-10-11 1-21 6-28 14-7 8-10 17-10 27 0 12 5 23 15 32 18 15 44 13 58-5z m-45-10c-9-8-10-21-2-30 4-4 9-7 15-7 6 0 11 1 16 5 4 4 7 9 7 15 0 1 0 1 0 2 0 5-2 10-5 14-8 7-22 8-31 1z" horiz-adv-x="851" />
</font>
</defs>
</svg>